{
  "cviceni": {
    "version": {
      "global": "<%= version %>",
      "content": 3
    },
    "id": 26,
    "katalog": [
      "test",
      "public"
    ],
    "language": "cs",
    "slug": "proc-resit-zidovskou-otazku",
    "nazev": "Proč řešit židovskou otázku?",
    "autor": [
      "Michal Frankl"
    ],
    "klicovaSlova": [
      "antisemitismus",
      "druhá republika",
      "příčiny a důsledky",
      "etická dimenze",
      "vidíme pod povrch pramene"
    ],
    "anotace": {
      "ucitel": "Cvičení pracuje s antisemitskou žádostí plzeňského právníka z doby druhé Československé republiky (1938–1939). Zaměřuje se na rozbor jazyka antisemitismu a porozumění tomu, jakým způsobem konstruuje obraz my versus oni. Při analýze dokumentu a jeho následném hodnocení vytváříme prostor, v němž si žáci mohou uvědomit, že sociální problémy je možné smysluplně diskutovat a účinně řešit pouze bez ideologických předsudků, stereotypů a představ odtržených od skutečnosti. Zkušenost s ideologickým jazykem historického pramene rozvíjí u žáků kritický odstup od současných podob ideologizace a černobílého vidění světa.",
      "verejna": "Začtěte se do dopisu. Není jen tak ledajaký. Je adresovaný vládě Česko-Slovenské republiky. Co vedlo českého plzeňského právníka ho napsat a odeslat? Odhalte antisemitské prvky, prozkoumejte kontext dopisu a dozvíte se více o vztazích mezi Čechy a Židy během druhé republiky."
    },
    "trvani": 45,
    "funkce": [
      "lupa",
      "cteni",
      "text",
      "analyticka-tabulka",
      "text-editor",
      "pretahovani"
    ],
    "pdf": {
      "doporucenyPostup": "proc-resit-zidovskou-otazku.pdf"
    },
    "uvodniObrazek": "proc-resit-zidovskou-otazku/pic-00-1024h.jpg"
  },
  "slajd": [
    {
      "class": [
        "half-slide-previous"
      ],
      "zadani": {
        "hlavni": "Přečtěte si text.",
        "rozsirujici": ""
      },
      "napoveda": {
        "aktivity": [
          "lupa",
          "cteni"
        ],
        "text": ""
      },
      "textovyEditor": {
        "galerie": [
          {
            "soubor": "proc-resit-zidovskou-otazku/pic-00-1024h.jpg"
          },
          {
            "soubor": "proc-resit-zidovskou-otazku/pic-01-1024h.jpg"
          },
          {
            "soubor": "proc-resit-zidovskou-otazku/pic-02-1024h.jpg"
          },
          {
            "soubor": "proc-resit-zidovskou-otazku/pic-03-1024h.jpg"
          }
        ],
        "texty": [
          {
            "id": 0,
            "text": "text-00",
            "funkce": "cteni"
          }
        ]
      },
      "popisky": [
        "Žádost JUDr. Bohumila Šedivého, kandidáta advokacie z Plzně, adresovaná vládě Česko-Slovenské republiky, 2. ledna 1939. Zdroj: NA Praha"
      ]
    },
    {
      "class": [
        "half-slide-active"
      ],
      "zadani": {
        "hlavni": "Odpovězte na otázky.",
        "rozsirujici": ""
      },
      "napoveda": {
        "aktivity": [
          "text"
        ],
        "text": ""
      },
      "uzivatelskyText": {
        "otazky": [
          {
            "id": "text-1",
            "zadani": "Co trápí dr. Šedivého?",
            "instrukce": "Myslím si, že…",
            "minDelka": 10,
            "maxDelka": 400
          },
          {
            "id": "text-2",
            "zadani": "Jaké má požadavky?",
            "instrukce": "Myslím si, že…",
            "minDelka": 10,
            "maxDelka": 400
          }
        ]
      }
    },
    {
      "zadani": {
        "hlavni": "Označte 3 výrazy, které vyjadřují vlastnosti a činnosti, jež autor přičítá Židům. Dále označte 3 výrazy, s jejichž pomocí popisuje sám sebe.",
        "rozsirujici": ""
      },
      "napoveda": {
        "aktivity": [
          "text-editor"
        ],
        "text": "Levým tlačítkem myši zabarvíte zvolené slovo nebo slovní spojení. Otevře se vám nabídka, v níž zvolíte označovanou kategorii. Křížkem lze označení smazat."
      },
      "textovyEditor": {
        "texty": [
          {
            "id": 1,
            "text": "text-01",
            "funkce": "zvyraznovani",
            "menu": [
              {
                "title": "Vlastnosti a činnosti připisované Židům",
                "commandName": "zide",
                "classes": "text-red",
                "command": "toggle-class",
                "commandOptions": {
                  "toggleClass": "node-selected node-text-red",
                  "closeBtn": true,
                  "comments": false,
                  "commentsClass": "text-red"
                }
              },
              {
                "title": "Vlastnosti a činnosti připisované Šedivému",
                "commandName": "sedivy",
                "classes": "text-orange",
                "command": "toggle-class",
                "commandOptions": {
                  "toggleClass": "node-selected node-text-orange",
                  "closeBtn": true,
                  "comments": false,
                  "commentsClass": "text-orange"
                }
              }
            ]
          }
        ]
      },
      "popisky": [
        "Žádost JUDr. Bohumila Šedivého, kandidáta advokacie z Plzně, adresovaná vládě Česko-slovenské republiky, 2. ledna 1939. Zdroj: Národní archiv Praha."
      ]
    },
    {
      "zadani": {
        "hlavni": "Doplňte do tabulky výrazy, které vyjadřují vlastnosti a činnosti Šedivého a souvisejí s charakteristikou Židů.",
        "rozsirujici": ""
      },
      "napoveda": {
        "aktivity": [
          "analyticka-tabulka"
        ],
        "text": ""
      },
      "novaTabulka": {
        "pretahovani": {
          "id": "pretahovani-1",
          "dataFrom": ["1"],
          "name": "Vámi označené výrazy",
          "tagName": "sedivy"
        },
        "tabulky": [
          {
            "id": "nova-tabulka-1",
            "dataFrom": ["1"],
            "columns": [
              {
                "id": "zide",
                "name": "Vlastnosti a činnosti připisované Židům",
                "type": {
                  "name": "dup-text",
                  "type": "tag",
                  "tagName": "zide"
                },
                "bg-color": "",
                "values": []
              },
              {
                "id": "sedivy",
                "name": "Vlastnosti a činnosti připisované Šedivému",
                "type": {
                  "name": "drop",
                  "type": "tag",
                  "number": "-1"
                },
                "bg-color": "",
                "values": []
              }
            ]
          }
        ]
      }
    },
    {
      "zadani": {
        "hlavni": "Přečtěte si text a zasaďte žádost Bohumila Šedivého do dobových souvislostí.",
        "rozsirujici": "Označte pasáže, které popisují vztahy Čechů s Židy v době vzniku dopisu."
      },
      "napoveda": {
        "aktivity": [
          "text-editor"
        ],
        "text": "Levým tlačítkem myši zabarvíte zvolené slovo nebo slovní spojení. Otevře se vám nabídka, v níž zvolíte označovanou kategorii. Křížkem lze označení smazat."
      },
      "textovyEditor": {
        "texty": [
          {
            "id": 3,
            "text": "text-02",
            "funkce": "zvyraznovani",
            "menu": [
              {
                "title": "Označit pasáž.",
                "classes": "text-blue",
                "command": "toggle-class",
                "commandName": "dulezite-pasaze",
                "commandOptions": {
                  "toggleClass": "node-selected node-text-blue",
                  "closeBtn": true,
                  "comments": false,
                  "commentsClass": "text-blue"
                }
              }
            ]
          }
        ]
      }
    },
    {
      "zadani": {
        "hlavni": "Odpovězte na otázky.",
        "rozsirujici": ""
      },
      "napoveda": {
        "aktivity": [
          "text"
        ],
        "text": "Do boxu pro text zapisujete odpověď na otázku, nebo jiný komentář (dle zadání)."
      },
      "uzivatelskyText": {
        "otazky": [
          {
            "id": "text-3",
            "zadani": "Co dopis vypovídá o vztazích mezi Čechy a Židy v období druhé republiky?",
            "instrukce": "Myslím si, že…",
            "minDelka": 10,
            "maxDelka": 400
          },
          {
            "id": "text-4",
            "zadani": "Na co byste se chtěli zeptat dr. Šedivého?",
            "instrukce": "Moje otázky…",
            "minDelka": 10,
            "maxDelka": 400
          }
        ]
      }
    }
  ]
}
