{
  "cviceni": {
    "version": {
      "global": "<%= version %>",
      "content": 1
    },
    "katalog": [
      "test"
    ],
    "language": "cs",
    "slug": "co-se-stalo-v-zime-1970",
    "nazev": "Co se stalo v zimě 1970?",
    "autor": [
      "Josef Řídký"
    ],
    "casovaOsa": {
      "letopocet": [
        1969,
        1970
      ],
      "epocha": {
        "ceska": [
          "Pokus o reformu komunismu",
          "Normalizace"
        ]
      }
    },
    "klicovaSlova": [
      "Československo 70. léta", "každodennost", "dobové perspektivy", "tvoříme"
    ],
    "anotace": {
      "ucitel": "Cvičení pracuje s úryvky rozhlasového zpravodajství z přelomu let 1969–1970 a propojuje je s informacemi z dobového tisku a fotografií. Žáci se díky nim dozvídají a pandemii hongkongské chřipky a v roli reportérů popisují její vliv na hospodářství a zohledňují perspektivy různých skupin populace. Cílem cvičení je ukázat, že i jednoznačná událost se skládá z více, třeba i protichůdných rovin a že různí lidé ji mohli vnímat různě. Cvičení tak motivuje k empatii s historickými aktéry.",
      "verejna": "V Praze 20 000 nemocných, v Itálii 15 milionů. Je to zpráva z roku 2020, nebo se musíme podívat dál do historie? Poslechněte si rozhlasové nahrávky a zjistěte, co se skrývá pod označením A2 Hongkong a jak to ovlivnilo životy lidí."
    },
    "obtiznost": "nizka",
    "trvani": 30,
    "funkce": [
      "lupa",
      "cteni",
      "text",
      "audio"
    ],
    "pdf": {
      "doporucenyPostup": "co-se-stalo-v-zime-1970.pdf"
    },
    "uvodniObrazek": "co-se-stalo-v-zime-1970/pic-01-810w.jpg",
    "id": 109
  },
  "slajd": [
    {
      "class": "half-slide-previous",
      "zadani": {
        "hlavni": "Poslechněte si nahrávku a přečtěte novinový článek.",
        "rozsirujici": ""
      },
      "napoveda": {
        "aktivity": [
          "lupa",
          "audio"
        ],
        "text": "Při kliknutí levým tlačítkem do obrazu lupa přiblíží část obrazu ve výřezu."
      },
      "media": {
        "nastaveni": {
          "vzhled": "normalni",
          "layout": "velka-galerie"
        },
        "soubory": [
          {
            "soubor": "co-se-stalo-v-zime-1970/audio-00.mp3",
            "nazev": "Rozhlasové noviny, 3. ledna 1970",
            "popisek": "Zdroj: Archiv ČRo"
          }
        ],
        "galerie": [
          {
            "soubor": "co-se-stalo-v-zime-1970/pic-00-1280w.jpg",
            "popisek": "Zdroj: Rudé právo, 29. prosince 1969"
          }
        ]
      }
    },
    {
      "class": "half-slide-active",
      "zadani": {
        "hlavni": "Co se dělo v ČSSR v zimě roku 1970?",
        "rozsirujici": ""
      },
      "napoveda": {
        "aktivity": [
          "text"
        ],
        "text": "Do boxu pro text zapisujete odpověď na otázku, nebo jiný komentář (dle zadání)."
      },
      "uzivatelskyText": {
        "otazky": [
          {
            "id": "text-1",
            "zadani": "Představte si, že jste reportéři a máte o událostech zimy 1970 napsat článek. Poznamenejte si nejdůležitější údaje.",
            "instrukce": "Potřebuji zjistit...",
            "minDelka": 10,
            "maxDelka": 999
          }
        ]
      }
    },
    {
      "class": "half-slide-previous",
      "zadani": {
        "hlavni": "Pátrejte, co dalšího se během zimy 1970 přihodilo v ČSSR.",
        "rozsirujici": "Poslechněte si další zvukové záznamy a na fotografiích si prohlédněte, jak v té době zimy vypadaly."
      },
      "napoveda": {
        "aktivity": [
          "audio", "lupa"
        ],
        "text": "Při kliknutí levým tlačítkem do obrazu lupa přiblíží část obrazu ve výřezu."
      },
      "media": {
        "nastaveni": {
          "layout": "horizontalni"
        },
        "soubory": [
          {
            "vzhled": "normalni",
            "soubor": "co-se-stalo-v-zime-1970/audio-01.mp3",
            "popisek": "Zdroj: Archiv ČRo",
            "nazev": "V Praze kolabuje doprava, Rozhlasové noviny, 28. prosince 1969"
          },
          {
            "vzhled": "normalni",
            "soubor": "co-se-stalo-v-zime-1970/audio-02.mp3",
            "popisek": "Zdroj: Archiv ČRo",
            "nazev": "Chřipková epidemie pokračuje, Rozhlas povolává studenty na brigády, Rozhlasové noviny, 9. ledna 1970"
          },
          {
            "vzhled": "normalni",
            "soubor": "co-se-stalo-v-zime-1970/audio-03.mp3",
            "popisek": "Zdroj: Archiv ČRo",
            "nazev": "Zmrzlé vlaky stojí na kolejích, energetika nemá palivo, Rozhlasové noviny, 9. ledna 1970"
          }
        ]
      },
      "prameny": [
        "co-se-stalo-v-zime-1970/pic-01-810w.jpg",
        "co-se-stalo-v-zime-1970/pic-02-1024h.jpg",
        "co-se-stalo-v-zime-1970/pic-03-810w.jpg"
      ],
      "popisky": [
        "Sněhová kalamita na Národní třídě v Praze, konec 60. let. Foto Jiří Finda. Zdroj: ČTK",
        "Staroměstské náměstí v Praze, konec 60. let. Foto Jiří Finda. Zdroj: ČTK",
        "Rozmrazovací tunel, elektrárna Mělník, 9. ledna 1962. Foto Jan Tachezy. Zdroj: ČTK"
      ]
    },
    {
      "class": "half-slide-active",
      "zadani": {
        "hlavni": "Které další problémy zima 1970 přinesla a jak mohly souviset s chřipkou?",
        "rozsirujici": ""
      },
      "napoveda": {
        "aktivity": [
          "text"
        ],
        "text": "Do boxu pro text zapisujete odpověď na otázku, nebo jiný komentář (dle zadání)."
      },
      "uzivatelskyText": {
        "otazky": [
          {
            "id": "text-2",
            "duplikovat": ["text-1"],
            "zadani": "Doplňte své předchozí reportážní poznámky o nové údaje.",
            "instrukce": "",
            "minDelka": 10,
            "maxDelka": 999
          }
        ]
      }
    },
    {
      "class": "half-slide-previous",
      "zadani": {
        "hlavni": "Prohlédněte si dobový tisk.",
        "rozsirujici": "Doplňte si představu o tom, co všechno se v zimě 1970 v ČSSR dělo."
      },
      "napoveda": {
        "aktivity": [
          "audio", "lupa"
        ],
        "text": "Při kliknutí levým tlačítkem do obrazu lupa přiblíží část obrazu ve výřezu."
      },
      "media": {
        "nastaveni": {
          "layout": "horizontalni"
        },
        "soubory": [
          {
            "vzhled": "normalni",
            "soubor": "co-se-stalo-v-zime-1970/audio-04.mp3",
            "popisek": "Zdroj: Archiv ČRo",
            "nazev": "V Praze kolabuje doprava, Rozhlasové noviny, 28. prosince 1969"
          },
          {
            "vzhled": "normalni",
            "soubor": "co-se-stalo-v-zime-1970/audio-05.mp3",
            "popisek": "Zdroj: Archiv ČRo",
            "nazev": "Chřipková epidemie pokračuje, Rozhlas povolává studenty na brigády, Rozhlasové noviny, 9. ledna 1970"
          },
          {
            "vzhled": "normalni",
            "soubor": "co-se-stalo-v-zime-1970/audio-06.mp3",
            "popisek": "Zdroj: Archiv ČRo",
            "nazev": "Zmrzlé vlaky stojí na kolejích, energetika nemá palivo, Rozhlasové noviny, 9. ledna 1970"
          }
        ]
      },
      "prameny": [
        "co-se-stalo-v-zime-1970/pic-04-1024h.jpg",
        "co-se-stalo-v-zime-1970/pic-05-1024h.jpg",
        "co-se-stalo-v-zime-1970/pic-06-810w.jpg"
      ],
      "popisky": [
        "Rudé právo, 2. ledna 1970",
        "Rudé právo, 7. ledna 1970",
        "Rudé právo, 5. ledna 1970"
      ]
    },
    {
      "class": "half-slide-active",
      "zadani": {
        "hlavni": "Které další problémy zima 1970 přinesla a jak mohly souviset s chřipkou?",
        "rozsirujici": ""
      },
      "napoveda": {
        "aktivity": [
          "text"
        ],
        "text": "Do boxu pro text zapisujete odpověď na otázku, nebo jiný komentář (dle zadání)."
      },
      "uzivatelskyText": {
        "otazky": [
          {
            "id": "text-3",
            "duplikovat": ["text-2"],
            "zadani": "Doplňte své předchozí reportážní poznámky o nové údaje.",
            "instrukce": "",
            "minDelka": 10,
            "maxDelka": 999
          }
        ]
      }
    },
    {
      "zadani": {
        "hlavni": "Dokončete svůj článek.",
        "rozsirujici": ""
      },
      "napoveda": {
        "aktivity": [
          "text"
        ],
        "text": "Do boxu pro text zapisujete odpověď na otázku, nebo jiný komentář (dle zadání)."
      },
      "uzivatelskyText": {
        "otazky": [
          {
            "id": "text-4",
            "zadani": "Zohledněte, jaký dopad mohly mít události zimy 1970 např. na studenty, lékaře, pracovníky dopravy nebo běžné občany.",
            "instrukce": "",
            "minDelka": 10,
            "maxDelka": 999,
            "vyska": 25,
            "duplikovat": ["text-3"]
          }
        ]
      }
    }
  ]
}
