{
  "cviceni": {
    "version": {
      "global": "<%= version %>",
      "content": 1
    },
    "language": "cs",
    "katalog": ["test"],
    "slug": "co-umeni-vypovida-o-valce",
    "nazev": "Co umění vypovídá o válce?",
    "autor": ["Jaroslav Najbert"],
    "klicovaSlova": [
      "vztah k minulosti",
      "vidíme pod povrch pramene"
    ],
    "anotace": {
      "ucitel": "Cvičení využívá známý obraz Pabla Picassa Guernica k tomu, aby žáky seznámil s fenomén protiválečného umění. Analyzují, jakým způsobem znázorňuje válku, a svá zjištění doplňují informacemi z dalších pramenů. V závěru odpovídají na otázky, jak obraz válku zobrazuje a proč se z něho stal nadčasový symbol protiválečných protestů.",
      "verejna": "Prozkoumejte příběh jednoho z nejznámějších meziválečných obrazů od Pabla Picassa a zjistěte, jak válku zobrazuje a proč se dodnes využívá jako symbol protestů proti válce."
    },
    "trvani": 30,
    "funkce": ["lupa", "cteni", "text", "pretahovani", "svg", "znacky"],
    "pdf": {
      "doporucenyPostup": "co-umeni-vypovida-o-valce.pdf"
    },
    "uvodniObrazek": "co-umeni-vypovida-o-valce/pic-00-1280w.jpg",
    "id": 96
  },
  "slajd": [
    {
      "zadani": {
        "hlavni": "Prohlédněte si obraz.",
        "rozsirujici": ""
      },
      "napoveda": {
        "aktivity": ["lupa"],
        "text": "Při kliknutí levým tlačítkem do obrazu lupa přiblíží část obrazu ve výřezu."
      },
      "prameny": ["co-umeni-vypovida-o-valce/pic-00-1280w.jpg"],
      "popisky": [
        "Monumentální obraz o rozměrech 350x780 cm Picasso namaloval na objednávku španělské vlády pro světovou výstavu v Paříži v době, kdy v zemi probíhala občanská válka. Pojmenoval ho podle města ve španělském regionu Baskicko. Veřejnost tento obraz od začátku vnímala jako protiválečné dílo. Pablo Picasso: Guernica [olej na plátně], 1937. Zdroj: Museo Reina Sofía v Madridu"
      ]
    },
    {
      "zadani": {
        "hlavni": "Označte a popište motivy, kterými podle vás autor zobrazuje válku.",
        "rozsirujici": ""
      },
      "napoveda": {
        "aktivity": ["svg"],
        "text": "Do obrázku můžete kreslit a zapisovat informace."
      },
      "svg": {
        "soubory": [
          {
            "id": "svg-1",
            "soubor": "co-umeni-vypovida-o-valce/pic-00-1280w.jpg",
            "funkce": ["kresleni", "text"]
          }
        ]
      },
      "popisky": [
        "Monumentální obraz o rozměrech 350x780 cm Picasso namaloval na objednávku španělské vlády pro světovou výstavu v Paříži v době, kdy v zemi probíhala občanská válka. Pojmenoval ho podle města ve španělském regionu Baskicko. Veřejnost tento obraz od začátku vnímala jako protiválečné dílo. Pablo Picasso: Guernica [olej na plátně], 1937. Zdroj: Museo Reina Sofía v Madridu"
      ]
    },
    {
      "zadani": {
        "hlavni": "Doplňte do obrazu klíčová slova, která nejlépe vyjadřují, jak zobrazuje válku.",
        "rozsirujici": ""
      },
      "napoveda": {
        "aktivity": ["svg"],
        "text": "Pomocí drag and drop přesouvejte položky z nabídky do obrázku.<br> Do obrázku můžete také kreslit a zapisovat další informace."
      },
      "svg": {
        "nastaveni": {
          "layout": "vertikalni"
        },
        "pretahovani": {
          "id": "pretahovani-0",
          "items": [
            {
              "objekt": "naděje",
              "medium": "tag"
            },
            {
              "objekt": "bolest",
              "medium": "tag"
            },
            {
              "objekt": "překvapení",
              "medium": "tag"
            },
            {
              "objekt": "ohrožení",
              "medium": "tag"
            },
            {
              "objekt": "zbraň",
              "medium": "tag"
            },
            {
              "objekt": "chaos",
              "medium": "tag"
            },
            {
              "objekt": "trosky",
              "medium": "tag"
            },
            {
              "objekt": "odpor",
              "medium": "tag"
            },
            {
              "objekt": "hněv",
              "medium": "tag"
            },
            {
              "objekt": "plameny",
              "medium": "tag"
            },
            {
              "objekt": "fašismus",
              "medium": "tag"
            },
            {
              "objekt": "socialismus",
              "medium": "tag"
            },
            {
              "objekt": "oběti",
              "medium": "tag"
            },
            {
              "objekt": "pachatelé",
              "medium": "tag"
            }
          ]
        },
        "soubory": [
          {
            "id": "svg-2",
            "soubor": "co-umeni-vypovida-o-valce/pic-00-1280w.jpg",
            "duplikovat": ["svg-1"],
            "funkce": [],
            "drop": true
          }
        ]
      },
      "popisky": [
        "Monumentální obraz o rozměrech 350x780 cm Picasso namaloval na objednávku španělské vlády pro světovou výstavu v Paříži v době, kdy v zemi probíhala občanská válka. Pojmenoval ho podle města ve španělském regionu Baskicko. Veřejnost tento obraz od začátku vnímala jako protiválečné dílo. Pablo Picasso: Guernica [olej na plátně], 1937. Zdroj: Museo Reina Sofía v Madridu"
      ]
    },
    {
      "class": ["half-slide-previous"],
      "zadani": {
        "hlavni": "Prozkoumejte další prameny. Informace, které osvětlují, co dílo vypovídá o válce, doplňte formou textového komentáře do obrazu.",
        "rozsirujici": ""
      },
      "napoveda": {
        "aktivity": ["svg"],
        "text": "Kliknutím na snímek levým tlačítkem myši označujete bod. Nakliknutím na bod pravým tlačítkem otevřete menu s nabídkou úkonů: změnit barvu bodu, (T) doplnit textový komentář, (X) smazat nakliknutý objekt."
      },
      "svg": {
        "nastaveni": {
          "layout": "velka-galerie"
        },
        "galerie": [
          {
            "soubor": "co-umeni-vypovida-o-valce/pic-01-1280w.jpg",
            "popisek": "Baskické město Guernica se jako první město v dějinách stalo cílem vojenského leteckého bombardování civilistů. Zničily ho německé letouny z Legie Condor, které pomáhaly budoucímu diktátorovi Francescu Francovi porazit levicové republikánské jednotky v občanské válce. Zdroj: ČTK/Mary Evans"
          },
          {
            "soubor": "co-umeni-vypovida-o-valce/pic-02-1280w.jpg",
            "popisek": "Světová výstava v Paříži v roce 1937 na téma Umění a technika v moderním životě, kde byla Guernica poprvé vystavena. Pohled na německý a sovětský pavilon poblíž Eiffelovy věže. Málo významný španělský pavilon nebyl ani pojmenován na oficiální mapě výstavy. Zdroj: Wikimedia"
          },
          {
            "soubor": "co-umeni-vypovida-o-valce/pic-03-1280w.jpg",
            "popisek": "Američané protestují proti americké zahraniční politice, 2009. Foto C. Elle. Zdroj: Flickr"
          },
          {
            "soubor": "co-umeni-vypovida-o-valce/pic-04-1280w.jpg",
            "popisek": "Jedna z mnoha variací na téma Guernica od portugalského kreslíře Vasca Gargaly s názvem Allepo(nica), 2016. Zdroj: Cartooning for Peace"
          }
        ],
        "soubory": [
          {
            "id": "svg-3",
            "soubor": "co-umeni-vypovida-o-valce/pic-00-1280w.jpg",
            "duplikovat": ["svg-2"],
            "funkce": ["text", "znacky"]
          }
        ]
      }
    },
    {
      "class": ["half-slide-active"],
      "zadani": {
        "hlavni": "Zodpovězte otázky.",
        "rozsirujici": ""
      },
      "napoveda": {
        "aktivity": ["text"],
        "text": "Do boxu pro text zapisujete odpověď na otázku, nebo jiný komentář (dle zadání)."
      },
      "uzivatelskyText": {
        "otazky": [
          {
            "id": "text-0",
            "zadani": "Jak obraz Guernica vyobrazil válku?",
            "instrukce": "Myslím si, že…",
            "minDelka": 10,
            "maxDelka": 500
          },
          {
            "id": "text-1",
            "zadani": "Proč se tento obraz využíval jako protiválečné dílo i později?",
            "instrukce": "Myslím si, že…",
            "minDelka": 10,
            "maxDelka": 500
          }
        ]
      }
    }
  ]
}
