{
  "cviceni": {
    "version": {
      "global": "<%= version %>",
      "content": 2
    },
    "id": 31,
    "katalog": [
      "public",
      "test"
    ],
    "language": "cs",
    "nazev": "Proč vznikl školní obraz?",
    "slug": "proc-vznikl-skolni-obraz",
    "autor": [
      "Kamil Činátl"
    ],
    "anotace": {
      "ucitel": "Cvičení se zaměřuje na zobrazení návratu prezidenta Masaryka do republiky v roce 1918. Žáci zkoumají školní obraz a dvě fotografie této události. Srovnávají způsob zobrazení a zaměřují se na symbolické významy spojené s postavou T. G. Masaryka. Kritická analýza obrazu problematizuje vztah mezi skutečností a vyobrazením. Žáci si uvědomují posuny v zobrazení a rozvíjejí svou vizuální gramotnost.",
      "verejna": "Masaryk odjel z Rakouska-Uherska tajně a vrátil se do Československa slavnostně jako prezident. Příjezd zachytil fotograf. Důležitá událost se brzy dostala i do školní výuky. Pojďte zjistit jak!"
    },
    "klicovaSlova": [
      "vznik ČSR",
      "škola",
      "symbolický význam",
      "historický význam",
      "vidíme pod povrch pramene"
    ],
    "trvani": 30,
    "funkce": [
      "lupa",
      "text",
      "svg",
      "znacky"
    ],
    "pdf": {
      "doporucenyPostup": "proc-vznikl-skolni-obraz.pdf"
    },
    "uvodniObrazek": "proc-vznikl-skolni-obraz/pic-00-1024w.jpg"
  },
  "slajd": [
    {
      "zadani": {
        "hlavni": "Prohlédněte si fotografie.",
        "rozsirujici": ""
      },
      "napoveda": {
        "aktivity": [
          "lupa"
        ],
        "text": ""
      },
      "prameny": [
        "proc-vznikl-skolni-obraz/pic-01-1024w.jpg",
        "proc-vznikl-skolni-obraz/pic-02-1024w.jpg"
      ],
      "popisky": [
        "Příjezd T. G. Masaryka do vlasti, Horní Dvořiště, 20. prosince 1918. Zdroj: Muzeum T. G. Masaryka v Lánech",
        "Příjezd T. G. Masaryka do vlasti, Tábor, 21. prosince 1918. Zdroj: Muzeum T. G. Masaryka v Lánech"
      ]
    },
    {
      "zadani": {
        "hlavni": "Na obou fotografiích označte důležité prvky a popište je.",
        "rozsirujici": ""
      },
      "napoveda": {
        "aktivity": [
          "svg"
        ],
        "text": "Kliknutím na snímek levým tlačítkem myši označujete bod. Nakliknutím na bod pravým tlačítkem otevřete menu s nabídkou úkonů: změnit barvu bodu, (T) doplnit textový komentář, (X) smazat nakliknutý objekt."
      },
      "svg": {
        "soubory": [
          {
            "id": "svg-1",
            "soubor": "proc-vznikl-skolni-obraz/pic-01-1024w.jpg",
            "funkce": [
              "text",
              "znacky"
            ]
          },
          {
            "id": "svg-2",
            "soubor": "proc-vznikl-skolni-obraz/pic-02-1024w.jpg",
            "funkce": [
              "text",
              "znacky"
            ]
          }
        ]
      },
      "popisky": [
        "Tomáš G. Masaryk přijel do Československa 20. prosince 1918 zvláštním vlakem z Itálie. Doprovázela ho dcera Olga a také významní představitelé spojenců mladého Československa: francouzský vyslanec Clement Simon a italský generál Luigi Giussepe Piccione. V Horním Dvořišti se prezident setkal se synem Janem. V doprovodu prezidenta byl diplomat a legionář Jan Šeba a řadoví zástupci československých legií z Itálie a Francie. Noc strávil prezident v Českých Budějovicích, aby do Prahy dorazil za světla druhého dne. V Táboře jej 21. prosince uvítal starosta města Klos, prezident promluvil k shromáždění lidí. Vlak následně zamířil do Prahy, kde se odehrál hlavní uvítací ceremoniál za účasti statisíců lidí"
      ]
    },
    {
      "zadani": {
        "hlavni": "Prohlédněte si obraz.",
        "rozsirujici": ""
      },
      "napoveda": {
        "aktivity": [
          "lupa"
        ],
        "text": "Při kliknutí levým tlačítkem do obrazu lupa přiblíží část obrazu ve výřezu."
      },
      "prameny": [
        "proc-vznikl-skolni-obraz/pic-00-1024w.jpg"
      ],
      "popisky": [
        "Václav Čutta: První president Československé republiky T. G. Masaryk vítán 21. prosince 1918 v Horním Dvořišti na půdě osvobozené vlasti [školní obraz]. Zdroj: Pedagogické muzeum Jana Amose Komenského v Praze"
      ]
    },
    {
      "class": [
        "half-slide-previous"
      ],
      "zadani": {
        "hlavni": "Porovnejte fotografie se školním obrazem.",
        "rozsirujici": "V obraze označte důležité prvky, které se liší od fotografií, a popište je."
      },
      "napoveda": {
        "aktivity": [
          "svg"
        ],
        "text": "Kliknutím na obraz levým tlačítkem myši označujete bod. Nakliknutím na bod pravým tlačítkem otevřete menu s nabídkou úkonů: změnit barvu bodu, (T) doplnit textový komentář, (X) smazat nakliknutý objekt."
      },
      "svg": {
        "nastaveni": {
          "layout": "velka-galerie"
        },
        "galerie": [
          {
            "typ": "svg",
            "objekt": {
              "id": "svg-1-duplicated",
              "soubor": "proc-vznikl-skolni-obraz/pic-01-1024w.jpg",
              "duplikovat": ["svg-1"]
            },
            "popiska": "Příjezd T. G. Masaryka do vlasti (20. prosince 1918, Horní Dvořiště). <br>Zdroj: Muzeum T. G. Masaryka v Lánech"
          },
          {
            "typ": "svg",
            "objekt": {
              "id": "svg-2-duplicated",
              "soubor": "proc-vznikl-skolni-obraz/pic-02-1024w.jpg",
              "duplikovat": ["svg-2"]
            },
            "popiska": "Příjezd T. G. Masaryka do vlasti (21. prosince 1918, Tábor). <br>Zdroj: Muzeum T. G. Masaryka v Lánech"
          }
        ],
        "soubory": [
          {
            "id": "svg-3",
            "soubor": "proc-vznikl-skolni-obraz/pic-00-1024w.jpg",
            "funkce": [
              "text",
              "znacky"
            ]
          }
        ]
      }
    },
    {
      "class": [
        "half-slide-active"
      ],
      "zadani": {
        "hlavni": "Proč vznikl školní obraz TGM?",
        "rozsirujici": ""
      },
      "napoveda": {
        "aktivity": [
          "text"
        ],
        "text": "Do boxu pro text zapisujete odpověď na otázku, nebo jiný komentář (dle zadání)."
      },
      "uzivatelskyText": {
        "otazky": [
          {
            "id": "text-1",
            "zadani": "V čem se změnilo vyznění scény na školním obraze?",
            "instrukce": "Myslím si, že…",
            "minDelka": 10,
            "maxDelka": 400
          },
          {
            "id": "text-2",
            "zadani": "K čemu mohl obraz sloužit ve školní výuce?",
            "instrukce": "Myslím si, že…",
            "minDelka": 10,
            "maxDelka": 400
          }
        ]
      }
    }
  ]
}
